Getting started with Rcompadre • Rcompadre
…
Compadre <- cdb_fetch('compadre')

For this vignette we will use the sample of COMPADRE data that is distributed with the package. This dataset is intended for demonstration and learning purposes only and should not be used for real analyses! You can load it like this:

data(Compadre)

We can now ask for a summary of this object, which will tell us that it is a CompadreDB class S4 object. Simply typing the name of the object (Compadre in this case) will give a brief summary of its contents and display the first few rows of the data (which is a tibble). Please see the tibble vignette1 for information about this object type, and how it differs from data.table.

summary(Compadre)
#>     Length      Class       Mode 
#>          1 CompadreDB         S4
Compadre
#> A COM(P)ADRE database ('CompadreDB') object with 110 SPECIES and 150 MATRICES.
#> 
#> # A tibble: 150 x 48
#>    mat    SpeciesAuthor    SpeciesAccepted   CommonName Genus Family Order Class
#>    <list> <chr>            <chr>             <chr>      <chr> <fct>  <fct> <fct>
#>  1 <Comp… Setaria_incrass… Setaria incrassa… <NA>       Seta… Poace… Poal… Lili…
#>  2 <Comp… Lechea_cernua    Lechea cernua     <NA>       Lech… Cista… Malv… Magn…
#>  3 <Comp… Actinostemon_co… Actinostemon con… <NA>       Acti… Eupho… Malp… Magn…
#>  4 <Comp… Gaura_neomexica… Gaura neomexican… <NA>       Gaura Onagr… Myrt… Magn…
#>  5 <Comp… Eriogonum_longi… Eriogonum longif… Buckwheat  Erio… Polyg… Cary… Magn…
#>  6 <Comp… Platanthera_hoo… Platanthera hook… <NA>       Plat… Orchi… Aspa… Lili…
#>  7 <Comp… Succisa_pratens… Succisa pratensis <NA>       Succ… Capri… Dips… Magn…
#>  8 <Comp… Haplopappus_rad… Pyrrocoma radiata <NA>       Pyrr… Compo… Aste… Magn…
#>  9 <Comp… Astragalus_trem… Astragalus tremo… <NA>       Astr… Legum… Faba… Magn…
#> 10 <Comp… Plantago_corono… Plantago coronop… <NA>       Plan… Plant… Lami… Magn…
#> # … with 140 more rows, and 40 more variables: Phylum <fct>, Kingdom <fct>,
#> #   OrganismType <fct>, DicotMonoc <fct>, AngioGymno <fct>, Authors <chr>,
#> #   Journal <chr>, YearPublication <chr>, DOI.ISBN <chr>,
#> #   AdditionalSource <chr>, StudyDuration <dbl>, StudyStart <dbl>,
#> #   StudyEnd <dbl>, AnnualPeriodicity <chr>, NumberPopulations <dbl>,
#> #   MatrixCriteriaSize <fct>, MatrixCriteriaOntogeny <fct>,
#> #   MatrixCriteriaAge <fct>, MatrixPopulation <chr>, Lat <dbl>, Lon <dbl>,
#> #   Altitude <dbl>, Country <fct>, Continent <fct>, Ecoregion <chr>,
#> #   StudiedSex <fct>, MatrixComposite <fct>, MatrixTreatment <chr>,
…
Filtering/subsetting the database based on metadata

It is often desirable to subset the data based on sets of criteria. As with a normal data frame these databases can be subset using subset(). For example, I could subset to only Eudicot species as follows:

x <- subset(Compadre, DicotMonoc == "Eudicot")
x
#> A COM(P)ADRE database ('CompadreDB') object with 80 SPECIES and 108 MATRICES.
#> 
#> # A tibble: 108 x 48
#>    mat    SpeciesAuthor    SpeciesAccepted   CommonName Genus Family Order Class
#>    <list> <chr>            <chr>             <chr>      <chr> <fct>  <fct> <fct>
#>  1 <Comp… Lechea_cernua    Lechea cernua     <NA>       Lech… Cista… Malv… Magn…
#>  2 <Comp… Actinostemon_co… Actinostemon con… <NA>       Acti… Eupho… Malp… Magn…
#>  3 <Comp… Gaura_neomexica… Gaura neomexican… <NA>       Gaura Onagr… Myrt… Magn…
#>  4 <Comp… Eriogonum_longi… Eriogonum longif… Buckwheat  Erio… Polyg… Cary… Magn…
#>  5 <Comp… Succisa_pratens… Succisa pratensis <NA>       Succ… Capri… Dips… Magn…
#>  6 <Comp… Haplopappus_rad… Pyrrocoma radiata <NA>       Pyrr… Compo… Aste… Magn…
#>  7 <Comp… Astragalus_trem… Astragalus tremo… <NA>       Astr… Legum… Faba… Magn…
#>  8 <Comp… Plantago_corono… Plantago coronop… <NA>       Plan… Plant… Lami… Magn…
#>  9 <Comp… Petrocoptis_pse… Silene glaucifol… <NA>       Sile… Caryo… Cary… Magn…
#> 10 <Comp… Astragalus_peck… Astragalus peckii <NA>       Astr… Legum… Faba… Magn…
#> # … with 98 more rows, and 40 more variables: Phylum <fct>, Kingdom <fct>,
#> #   OrganismType <fct>, DicotMonoc <fct>, AngioGymno <fct>, Authors <chr>,
#> #   Journal <chr>, YearPublication <chr>, DOI.ISBN <chr>,
#> #   AdditionalSource <chr>, StudyDuration <dbl>, StudyStart <dbl>,
#> #   StudyEnd <dbl>, AnnualPeriodicity <chr>, NumberPopulations <dbl>,
#> #   MatrixCriteriaSize <fct>, MatrixCriteriaOntogeny <fct>,
#> #   MatrixCriteriaAge <fct>, MatrixPopulation <chr>, Lat <dbl>, Lon <dbl>,
#> #   Altitude <dbl>, Country <fct>, Continent <fct>, Ecoregion <chr>,
#> #   StudiedSex <fct>, MatrixComposite <fct>, MatrixTreatment <chr>,
…
