Using Rcompadre with the tidyverse • Rcompadre
…
The group_by and summarize functions

The group_by() and summarize() functions are used for split-apply-combine operations, where we want to apply a function separately to different groups within our data, and then recombine the results.

Here’s an example. We’ll use group_by() to group our database by unique values of species (column ‘SpeciesAccepted’), and then use summarize() to count the number of unique populations (column ‘MatrixPopulation’) for each group. Notice that the output is a regular tibble (i.e. no longer a CompadreDB object) with one row for each unique ‘group’ (i.e. species).

# count number of unique populations by species
Compadre %>% 
  group_by(SpeciesAccepted) %>% 
  summarize(n_populations = length(unique(MatrixPopulation))) %>% 
  arrange(desc(n_populations)) # arrange in descending order of n_pops
#> # A tibble: 110 x 2
#>    SpeciesAccepted        n_populations
#>    <chr>                          <int>
#>  1 Aster amellus                      3
#>  2 Echinacea angustifolia             3
#>  3 Lepidium davisii                   3
#>  4 Pyrrocoma radiata                  3
#>  5 Androsace elongata                 2
#>  6 Armeria caespitosa                 2
#>  7 Asarum canadense                   2
#>  8 Astragalus peckii                  2
#>  9 Astragalus scaphoides              2
#> 10 Calochortus lyallii                2
#> # … with 100 more rows
…
