Getting Started with Rcompadre • RcompadreDev
…
Compadre <- cdb_fetch('compadre')

For this vignette we will use the sample of COMPADRE data that is distributed with the package. This dataset is intended for demonstration and learning purposes only and should not be used for real analyses! You can load it like this:

data(Compadre)

We can now ask for a summary of this object, which will tell us that it is a CompadreDB class S4 object. Simply typing the name of the object (Compadre in this case) will give a brief summary of its contents and display the first few rows of the data (which is a tibble).

summary(Compadre)
#>     Length      Class       Mode 
#>          1 CompadreDB         S4
Compadre
#> A COM(P)ADRE database ('CompadreDB') object with 110 SPECIES and 150 MATRICES.
#> 
#> # A tibble: 150 x 48
#>    mat   SpeciesAuthor SpeciesAccepted CommonName Genus Family Order Class
#>    <lis> <chr>         <chr>           <chr>      <chr> <fct>  <fct> <fct>
#>  1 <S4:… Setaria_incr… Setaria incras… <NA>       Seta… Poace… Poal… Lili…
#>  2 <S4:… Lechea_cernua Lechea cernua   <NA>       Lech… Cista… Malv… Magn…
#>  3 <S4:… Actinostemon… Actinostemon c… <NA>       Acti… Eupho… Malp… Magn…
#>  4 <S4:… Gaura_neomex… Gaura neomexic… <NA>       Gaura Onagr… Myrt… Magn…
#>  5 <S4:… Eriogonum_lo… Eriogonum long… Buckwheat  Erio… Polyg… Cary… Magn…
#>  6 <S4:… Platanthera_… Platanthera ho… <NA>       Plat… Orchi… Aspa… Lili…
#>  7 <S4:… Succisa_prat… Succisa praten… <NA>       Succ… Capri… Dips… Magn…
#>  8 <S4:… Haplopappus_… Pyrrocoma radi… <NA>       Pyrr… Compo… Aste… Magn…
#>  9 <S4:… Astragalus_t… Astragalus tre… <NA>       Astr… Legum… Faba… Magn…
#> 10 <S4:… Plantago_cor… Plantago coron… <NA>       Plan… Plant… Lami… Magn…
#> # ... with 140 more rows, and 40 more variables: Phylum <fct>,
#> #   Kingdom <fct>, OrganismType <fct>, DicotMonoc <fct>, AngioGymno <fct>,
#> #   Authors <chr>, Journal <chr>, YearPublication <chr>, DOI.ISBN <chr>,
#> #   AdditionalSource <chr>, StudyDuration <dbl>, StudyStart <dbl>,
#> #   StudyEnd <dbl>, AnnualPeriodicity <chr>, NumberPopulations <dbl>,
#> #   MatrixCriteriaSize <fct>, MatrixCriteriaOntogeny <fct>,
#> #   MatrixCriteriaAge <fct>, MatrixPopulation <chr>, Lat <dbl>, Lon <dbl>,
#> #   Altitude <dbl>, Country <fct>, Continent <fct>, Ecoregion <chr>,
#> #   StudiedSex <fct>, MatrixComposite <fct>, MatrixTreatment <chr>,
…
Subsetting the database based on metadata

It is often desirable to subset the data based on sets of criteria. As with a normal data frame these databases can be subset using subset. For example, I could subset to only Eudicot species as follows:

x <- subset(Compadre, DicotMonoc == "Eudicot")
x
#> A COM(P)ADRE database ('CompadreDB') object with 80 SPECIES and 108 MATRICES.
#> 
#> # A tibble: 108 x 48
#>    mat   SpeciesAuthor SpeciesAccepted CommonName Genus Family Order Class
#>    <lis> <chr>         <chr>           <chr>      <chr> <fct>  <fct> <fct>
#>  1 <S4:… Lechea_cernua Lechea cernua   <NA>       Lech… Cista… Malv… Magn…
#>  2 <S4:… Actinostemon… Actinostemon c… <NA>       Acti… Eupho… Malp… Magn…
#>  3 <S4:… Gaura_neomex… Gaura neomexic… <NA>       Gaura Onagr… Myrt… Magn…
#>  4 <S4:… Eriogonum_lo… Eriogonum long… Buckwheat  Erio… Polyg… Cary… Magn…
#>  5 <S4:… Succisa_prat… Succisa praten… <NA>       Succ… Capri… Dips… Magn…
#>  6 <S4:… Haplopappus_… Pyrrocoma radi… <NA>       Pyrr… Compo… Aste… Magn…
#>  7 <S4:… Astragalus_t… Astragalus tre… <NA>       Astr… Legum… Faba… Magn…
#>  8 <S4:… Plantago_cor… Plantago coron… <NA>       Plan… Plant… Lami… Magn…
#>  9 <S4:… Petrocoptis_… Silene glaucif… <NA>       Sile… Caryo… Cary… Magn…
#> 10 <S4:… Astragalus_p… Astragalus pec… <NA>       Astr… Legum… Faba… Magn…
#> # ... with 98 more rows, and 40 more variables: Phylum <fct>,
#> #   Kingdom <fct>, OrganismType <fct>, DicotMonoc <fct>, AngioGymno <fct>,
#> #   Authors <chr>, Journal <chr>, YearPublication <chr>, DOI.ISBN <chr>,
#> #   AdditionalSource <chr>, StudyDuration <dbl>, StudyStart <dbl>,
#> #   StudyEnd <dbl>, AnnualPeriodicity <chr>, NumberPopulations <dbl>,
#> #   MatrixCriteriaSize <fct>, MatrixCriteriaOntogeny <fct>,
#> #   MatrixCriteriaAge <fct>, MatrixPopulation <chr>, Lat <dbl>, Lon <dbl>,
#> #   Altitude <dbl>, Country <fct>, Continent <fct>, Ecoregion <chr>,
#> #   StudiedSex <fct>, MatrixComposite <fct>, MatrixTreatment <chr>,
…
