Subsetting CompadreDB objects — CompadreDB-Subsetting • Rcompadre
…
# remove the column SurvivalIssue
Compadre[, names(Compadre) != "SurvivalIssue"]
#> A COM(P)ADRE database ('CompadreDB') object with 110 SPECIES and 150 MATRICES.
#> 
#> # A tibble: 150 × 48
#>    mat        SpeciesAuthor  SpeciesAccepted CommonName Genus Family Order Class
#>    <list>     <chr>          <chr>           <chr>      <chr> <fct>  <fct> <fct>
#>  1 <CompdrMt> Setaria_incra… Setaria incras… NA         Seta… Poace… Poal… Lili…
#>  2 <CompdrMt> Lechea_cernua  Lechea cernua   NA         Lech… Cista… Malv… Magn…
#>  3 <CompdrMt> Actinostemon_… Actinostemon c… NA         Acti… Eupho… Malp… Magn…
#>  4 <CompdrMt> Gaura_neomexi… Gaura neomexic… NA         Gaura Onagr… Myrt… Magn…
#>  5 <CompdrMt> Eriogonum_lon… Eriogonum long… Buckwheat  Erio… Polyg… Cary… Magn…
#>  6 <CompdrMt> Platanthera_h… Platanthera ho… NA         Plat… Orchi… Aspa… Lili…
#>  7 <CompdrMt> Succisa_prate… Succisa praten… NA         Succ… Capri… Dips… Magn…
#>  8 <CompdrMt> Haplopappus_r… Pyrrocoma radi… NA         Pyrr… Compo… Aste… Magn…
#>  9 <CompdrMt> Astragalus_tr… Astragalus tre… NA         Astr… Legum… Faba… Magn…
#> 10 <CompdrMt> Plantago_coro… Plantago coron… NA         Plan… Plant… Lami… Magn…
#> # ℹ 140 more rows
#> # ℹ 40 more variables: Phylum <fct>, Kingdom <fct>, OrganismType <fct>,
#> #   DicotMonoc <fct>, AngioGymno <fct>, Authors <chr>, Journal <chr>,
#> #   YearPublication <chr>, DOI_ISBN <chr>, AdditionalSource <chr>,
#> #   StudyDuration <dbl>, StudyStart <dbl>, StudyEnd <dbl>,
#> #   ProjectionInterval <chr>, NumberPopulations <dbl>,
#> #   MatrixCriteriaSize <fct>, MatrixCriteriaOntogeny <fct>, …

subset(Compadre, select = c("SpeciesAccepted", "Authors"))
#> # A tibble: 150 × 2
#>    SpeciesAccepted                      Authors                                 
#>    <chr>                                <chr>                                   
#>  1 Setaria incrassata                   O'Connor                                
#>  2 Lechea cernua                        Maliakal Witt                           
#>  3 Actinostemon concolor                Bianchini; de Araujo; Green; Pimenta    
#>  4 Gaura neomexicana coloradensis       Floyd; Ranker                           
#>  5 Eriogonum longifolium gnaphalifolium Satterthwaite; Menges; Quintana-Ascencio
#>  6 Platanthera hookeri                  Reddoch; Reddoch                        
#>  7 Succisa pratensis                    Wallin; Svensson                        
#>  8 Pyrrocoma radiata                    Kaye; Pyke                              
#>  9 Astragalus tremolsianus              Iriondo; Albert; Gimenez; Lozano; Escud…
#> 10 Plantago coronopus                   Villellas; Morris; Garcia               
#> # ℹ 140 more rows
…
